
  __  __  ______      _______ ______  _____    _____ ______ _______      _______ _____ ______
 |  \/  |/ __ \ \    / /_   _|  ____|/ ____|  / ____|  ____|  __ \ \    / /_   _/ ____|  ____|
 | \  / | |  | \ \  / /  | | | |__  | (___   | (___ | |__  | |__) \ \  / /  | || |    | |__
 | |\/| | |  | |\ \/ /   | | |  __|  \___ \   \___ \|  __| |  _  / \ \/ /   | || |    |  __|
 | |  | | |__| | \  /   _| |_| |____ ____) |  ____) | |____| | \ \  \  /   _| || |____| |____
 |_|  |_|\____/   \/   |_____|______|_____/  |_____/|______|_|  \_\  \/   |_____\_____|______|

----------------------------------------------------------------------------------------------
-----------------------------------Author: Mateusz Borowski-----------------------------------
----------------------------------------------------------------------------------------------

